{
  "description": "This packer template builds an Ubuntu 14.04.02 amd64 LTS Server box for Vagrant/Virtualbox",
  "min_packer_version":"0.7.5",
  "push": {
    "name": "unboxed/fitkey-server",
    "address":"https://atlas.hashicorp.com",
    "vcs": true,
    "exclude":["./build", "./packer_cache"],
    "include": [""]
  },
  "builders": [
    {
      "name": "ubuntu-14.04.02-amd64",
      "boot_command": [
        "<esc><wait>",
        "<esc><wait>",
        "<enter><wait>",
        "/install/vmlinuz<wait>",
        " auto<wait>",
        " console-setup/ask_detect=false<wait>",
        " console-setup/layoutcode=us<wait>",
        " console-setup/modelcode=pc105<wait>",
        " debconf/frontend=noninteractive<wait>",
        " debian-installer=en_US<wait>",
        " fb=false<wait>",
        " initrd=/install/initrd.gz<wait>",
        " kbd-chooser/method=us<wait>",
        " keyboard-configuration/layout=USA<wait>",
        " keyboard-configuration/variant=USA<wait>",
        " locale=en_US<wait>",
        " netcfg/get_domain=vm<wait>",
        " netcfg/get_hostname=vagrant<wait>",
        " noapic<wait>",
        " preseed/url=http://{{ .HTTPIP }}:{{ .HTTPPort }}/ubuntu-14.04/preseed.cfg<wait>",
        " -- <wait>",
        "<enter><wait>"
      ],
      "boot_wait": "10s",
      "disk_size": 40960,
      "guest_additions_path": "VBoxGuestAdditions_{{.Version}}.iso",
      "guest_os_type": "Ubuntu_64",
      "hard_drive_interface": "sata",
      "http_directory": "http",
      "iso_checksum": "83aabd8dcf1e8f469f3c72fff2375195",
      "iso_checksum_type": "md5",
      "iso_url": "{{ user `iso_path`}}",
      "output_directory": "packer-ubuntu-14.04-amd64-virtualbox",
      "shutdown_command": "echo 'vagrant'|sudo -S shutdown -P now",
      "ssh_password": "vagrant",
      "ssh_port": 22,
      "ssh_username": "vagrant",
      "ssh_wait_timeout": "10000s",
      "type": "virtualbox-iso",
      "vboxmanage": [
        [
          "modifyvm",
          "{{.Name}}",
          "--memory",
          "4096"
        ],
        [
          "modifyvm",
          "{{.Name}}",
          "--cpus",
          "2"
        ],
        [
          "modifyvm",
          "{{.Name}}",
          "--ioapic",
          "on"
        ],
        [
          "modifyvm",
          "{{.Name}}",
          "--pae",
          "on"
        ]
      ],
      "virtualbox_version_file": ".vbox_version",
      "vm_name": "fitkey-ubuntu-14.04-amd64"
    }
  ],
  "provisioners": [
    {
      "type": "shell",
      "execute_command": "echo 'vagrant'|sudo -S -E bash '{{.Path}}'",
      "scripts": [
        "scripts/ubuntu/update.sh",
        "scripts/common/sshd.sh",
        "scripts/ubuntu/networking.sh",
        "scripts/ubuntu/sudoers.sh",
        "scripts/common/vagrant.sh",
        "scripts/common/vmtools.sh",
        "scripts/ansible.sh",
        "scripts/ubuntu/cleanup.sh",
        "scripts/common/minimize.sh"
      ]
    }
  ],
  "post-processors": [
    {
      "type": "vagrant",
      "only": ["ubuntu-14.04.02-amd64"],
      "output": "build/{{.BuildName}}-{{isotime}}.box"
    }
  ],
  "variables": {
    "atlas_token": "{{ env `ATLAS_TOKEN` }}",
    "iso_path": "{{ env `UBUNTU_ISO_PATH` }}",
    "iso_path": "/Users/sven/Developer/Ideamachine/Iso/ubuntu-14.04.2-server-amd64.iso"
  }
}
